,0
0,1
1,1
2,1
3,1
4,1
5,0
6,1
7,0
8,0
9,1
10,1
11,0
12,1
13,1
14,0
15,1
16,1
17,1
18,1
19,1
20,1
21,1
22,0
23,1
24,0
25,1
26,1
27,1
28,1
29,0
30,1
31,0
32,1
33,1
34,1
35,1
36,1
37,1
38,0
39,1
40,1
41,0
42,1
43,1
44,1
45,0
46,1
47,0
48,1
49,0
50,1
51,0
52,1
53,0
54,1
55,1
56,1
57,1
58,0
59,1
60,1
61,1
62,0
63,1
64,0
65,1
66,1
67,0
68,1
69,1
70,1
71,0
72,1
73,1
74,1
75,1
76,1
77,1
78,1
79,1
80,0
81,1
82,1
83,0
84,0
85,1
86,1
87,1
88,1
89,1
90,1
91,1
92,1
93,1
94,1
95,1
96,0
97,0
98,1
99,1
100,0
101,1
102,1
103,0
104,1
105,0
106,1
107,1
108,1
109,1
110,1
111,1
112,1
113,1
114,1
115,1
116,0
117,0
118,1
119,1
120,1
121,1
122,1
123,1
124,1
125,1
126,0
127,1
128,1
129,0
130,1
131,1
132,1
133,1
134,1
135,1
136,1
137,1
138,1
139,0
140,1
141,1
142,1
143,0
144,1
145,0
146,1
147,1
148,1
149,1
150,0
151,1
152,0
153,1
154,0
155,1
156,1
157,1
158,1
159,0
160,0
161,1
162,0
163,1
164,1
165,1
166,1
167,1
168,1
169,1
170,1
171,1
172,1
173,1
174,1
175,1
176,1
177,1
178,0
179,0
180,1
181,1
182,0
183,1
184,0
185,0
186,0
187,1
188,1
189,1
190,0
191,1
192,1
193,1
194,0
195,1
196,1
197,1
198,1
199,1
200,0
201,1
202,1
203,1
204,0
205,1
206,1
207,0
208,1
209,1
210,1
211,1
212,1
213,0
214,0
215,1
216,1
217,1
218,1
219,0
220,0
221,0
222,1
223,1
224,1
225,0
226,0
227,1
228,1
229,0
230,1
231,0
232,1
233,1
234,1
235,0
236,0
237,1
238,1
239,1
240,0
241,0
242,1
243,1
244,1
245,0
246,0
247,1
248,1
249,0
250,1
251,0
252,1
253,1
254,1
255,1
256,0
257,1
258,1
259,1
260,1
261,1
262,0
263,1
264,1
265,0
266,1
267,1
268,0
269,1
270,1
271,1
272,1
273,1
274,1
275,1
276,0
277,1
278,1
279,1
280,1
281,0
282,0
283,1
284,0
285,1
286,1
287,0
288,1
289,0
290,0
291,1
292,1
293,0
294,1
295,1
296,1
297,0
298,1
299,0
300,1
301,1
302,0
303,1
304,1
305,1
306,0
307,0
308,1
309,1
310,1
311,1
312,1
313,1
314,1
315,1
316,0
317,1
318,0
319,0
320,1
321,1
322,1
323,1
324,1
325,0
326,1
327,0
328,1
329,0
330,1
331,1
332,1
333,1
334,1
335,1
336,1
337,0
338,1
339,1
340,1
341,1
342,1
343,1
344,0
345,1
346,1
347,1
348,1
349,1
350,1
351,1
352,1
353,0
354,1
355,1
356,1
357,1
358,1
359,0
360,1
361,0
362,1
363,1
364,1
365,1
366,0
367,1
368,0
369,1
370,1
371,1
372,1
373,1
374,1
375,1
376,1
377,1
378,0
379,1
380,1
381,0
382,1
383,0
384,1
385,1
386,0
387,1
388,1
389,0
390,1
391,1
392,1
393,0
394,1
395,0
396,1
397,1
398,1
399,1
400,0
401,1
402,0
403,1
404,1
405,1
406,1
407,1
408,1
409,0
410,1
411,1
412,1
413,0
414,1
415,0
416,1
417,1
418,1
419,1
420,1
421,0
422,0
423,1
424,1
425,1
426,1
427,1
428,1
429,1
430,1
431,1
432,0
433,1
434,1
435,1
436,0
437,0
438,1
439,0
440,1
441,1
442,1
443,0
444,1
445,1
446,1
447,1
448,1
449,1
450,1
451,0
452,1
453,1
454,0
455,0
456,1
457,1
458,1
459,1
460,0
461,1
462,0
463,0
464,1
465,1
466,1
467,1
468,1
469,1
470,1
471,1
472,1
473,1
474,0
475,1
476,1
477,0
478,1
479,1
480,1
481,1
482,1
483,1
484,1
485,0
486,1
487,1
488,1
489,1
490,1
491,1
492,0
493,1
494,1
495,1
496,1
497,1
498,0
499,1
500,1
501,1
502,0
503,1
504,0
505,1
506,1
507,1
508,0
509,1
510,0
511,1
512,0
513,0
514,1
515,1
516,1
517,1
518,1
519,1
520,0
521,1
522,1
523,1
524,1
525,0
526,0
527,0
528,1
529,1
530,1
531,0
532,1
533,0
534,1
535,1
536,1
537,1
538,0
539,1
540,1
541,1
542,1
543,1
544,1
545,1
546,1
547,1
548,0
549,1
550,1
551,1
552,1
553,1
554,1
555,1
556,1
557,0
558,1
559,1
560,1
561,1
562,1
563,1
564,1
565,1
566,0
567,1
568,0
569,1
570,1
571,1
572,1
573,1
574,1
575,0
576,0
577,0
578,1
579,1
580,0
581,0
582,1
583,0
584,1
585,1
586,1
587,0
588,1
589,1
590,1
591,0
592,1
593,1
594,0
595,1
596,0
597,1
598,1
599,1
600,0
601,1
602,1
603,1
604,0
605,0
606,1
607,1
608,1
609,1
610,1
611,0
612,1
613,1
614,1
615,0
616,0
617,1
618,1
619,0
620,0
621,1
622,1
623,1
624,0
625,1
626,1
627,1
628,1
629,1
630,1
631,0
632,1
633,0
634,1
635,1
636,1
637,0
638,1
639,1
640,1
641,1
642,1
643,1
644,1
645,0
646,1
647,1
648,1
649,0
650,1
651,0
652,1
653,1
654,0
655,1
656,1
657,1
658,0
659,1
660,0
661,1
662,0
663,1
664,0
665,0
666,1
667,0
668,1
669,1
670,0
671,1
672,0
673,0
674,0
675,0
676,1
677,1
678,1
679,1
680,1
681,1
682,1
683,0
684,1
685,1
686,1
687,1
688,1
689,1
690,1
691,0
692,1
693,1
694,1
695,1
696,1
697,1
698,1
699,1
700,0
701,0
702,1
703,1
704,0
705,0
706,0
707,1
708,1
709,0
710,0
711,1
712,1
713,1
714,1
715,1
716,1
717,1
718,0
719,1
720,1
721,0
722,1
723,1
724,1
725,1
726,1
727,0
728,0
729,1
730,0
731,1
732,1
733,0
734,1
735,1
736,1
737,1
738,1
739,1
740,0
741,1
742,1
743,1
744,1
745,1
746,0
747,1
748,1
749,1
750,0
751,1
752,1
753,1
754,1
755,1
756,0
757,1
758,0
759,1
760,1
761,0
762,1
763,0
764,1
765,1
766,1
767,1
768,0
769,1
770,1
771,1
772,1
773,1
774,1
775,1
776,1
777,1
778,0
779,1
780,1
781,1
782,0
783,1
784,1
785,1
786,1
787,1
788,0
789,1
790,1
791,1
792,1
793,1
794,1
795,1
796,1
797,1
798,1
799,1
800,0
801,0
802,0
803,1
804,1
805,1
806,1
807,1
808,1
809,0
810,1
811,1
812,1
813,1
814,0
815,1
816,1
817,1
818,1
819,1
820,1
821,1
822,1
823,0
824,1
825,1
826,1
827,1
828,0
829,1
830,1
831,1
832,0
833,1
834,0
835,1
836,1
837,1
838,1
839,0
840,1
841,1
842,1
843,1
844,1
845,0
846,1
847,1
848,1
849,1
850,1
851,1
852,0
853,0
854,1
855,1
856,0
857,0
858,1
859,1
860,1
861,1
862,1
863,1
864,0
865,1
866,0
867,1
868,0
869,0
870,0
871,1
872,1
873,1
874,1
875,1
876,1
877,0
878,1
879,1
880,1
881,1
882,1
883,1
884,1
885,1
886,1
887,1
888,1
889,0
890,0
891,1
892,0
893,1
894,0
895,1
896,1
897,1
898,1
899,1
900,0
901,0
902,1
903,1
904,1
905,1
906,1
907,1
908,1
909,0
910,1
911,0
912,0
913,0
914,1
915,1
916,1
917,1
918,1
919,0
920,1
921,1
922,1
923,1
924,1
925,1
926,1
927,1
928,1
929,1
930,1
931,0
932,1
933,0
934,1
935,0
936,1
937,1
938,0
939,1
940,1
941,1
942,1
943,1
944,1
945,1
946,1
947,1
948,1
949,1
950,1
951,0
952,1
953,1
954,0
955,1
956,1
957,1
958,1
959,1
960,1
961,1
962,1
963,1
964,0
965,0
966,1
967,1
968,0
969,1
970,1
971,1
972,0
973,1
974,1
975,1
976,1
977,1
978,1
979,0
980,1
981,0
982,0
983,0
984,1
985,0
986,1
987,1
988,1
989,0
990,1
991,0
992,1
993,1
994,1
995,0
996,1
997,1
998,0
999,1
1000,0
1001,1
1002,1
1003,1
1004,1
1005,1
1006,1
1007,1
1008,1
1009,1
1010,1
1011,0
1012,1
1013,1
1014,1
1015,1
1016,1
1017,1
1018,1
1019,1
1020,1
1021,1
1022,0
1023,1
1024,1
1025,1
1026,1
1027,1
1028,0
1029,0
1030,1
1031,1
1032,1
1033,1
1034,1
1035,1
1036,0
1037,1
1038,1
1039,0
1040,0
1041,1
1042,1
1043,1
1044,0
1045,1
1046,1
1047,0
1048,1
1049,0
1050,1
1051,1
1052,1
1053,1
1054,1
1055,1
1056,1
1057,0
1058,1
1059,1
1060,1
1061,1
1062,1
1063,1
1064,0
1065,1
1066,1
1067,1
1068,1
1069,0
1070,0
1071,1
1072,1
1073,0
1074,1
1075,1
1076,1
1077,0
1078,1
1079,1
1080,0
1081,0
1082,1
1083,0
1084,1
1085,1
1086,1
1087,0
1088,1
1089,1
1090,1
1091,0
1092,1
1093,0
1094,1
1095,1
1096,1
1097,1
1098,1
1099,0
1100,1
1101,1
1102,1
1103,1
1104,1
1105,1
1106,1
1107,0
1108,1
1109,1
1110,1
1111,1
1112,1
1113,1
1114,1
1115,1
1116,0
1117,1
1118,1
1119,1
1120,1
1121,1
1122,1
1123,0
1124,1
1125,1
1126,1
1127,0
1128,1
1129,1
1130,0
1131,1
1132,1
1133,1
1134,1
1135,1
1136,1
1137,1
1138,0
1139,0
1140,1
1141,1
1142,0
1143,1
1144,0
1145,1
1146,1
1147,1
1148,1
1149,1
1150,0
1151,1
1152,1
1153,1
1154,1
1155,1
1156,1
1157,1
1158,1
1159,0
1160,0
1161,1
1162,1
1163,1
1164,1
1165,1
1166,1
1167,1
1168,1
1169,1
1170,0
1171,1
1172,0
1173,0
1174,0
1175,1
1176,0
1177,1
1178,1
1179,0
1180,1
1181,1
1182,1
1183,0
1184,1
1185,1
1186,0
1187,1
1188,1
1189,1
1190,1
1191,1
1192,1
1193,1
1194,1
1195,1
1196,1
1197,0
1198,1
1199,1
1200,1
1201,0
1202,0
1203,1
1204,0
1205,0
1206,1
1207,1
1208,1
1209,1
1210,0
1211,1
1212,0
1213,0
1214,1
1215,0
1216,0
1217,0
1218,1
1219,1
1220,1
1221,0
1222,1
1223,1
1224,1
1225,1
1226,1
1227,1
1228,0
1229,1
1230,0
1231,1
1232,0
1233,1
1234,1
1235,0
1236,1
1237,1
1238,1
1239,1
1240,1
1241,1
1242,1
1243,1
1244,1
1245,0
1246,1
1247,1
1248,1
1249,0
1250,1
1251,1
1252,1
1253,1
1254,1
1255,1
1256,1
1257,0
1258,1
1259,0
1260,1
1261,1
1262,1
1263,1
1264,1
1265,0
1266,1
1267,1
1268,1
1269,1
1270,0
1271,0
1272,1
1273,0
1274,1
1275,1
1276,1
1277,1
1278,1
1279,1
1280,1
1281,1
1282,1
1283,1
1284,1
1285,1
1286,1
1287,1
1288,1
1289,1
1290,1
1291,1
1292,1
1293,1
1294,0
1295,0
1296,1
1297,1
1298,1
1299,1
1300,1
1301,0
1302,1
1303,0
1304,1
1305,0
1306,1
1307,0
1308,1
1309,0
1310,1
1311,1
1312,1
1313,0
1314,1
1315,1
1316,1
1317,1
1318,0
1319,1
1320,1
1321,1
1322,1
1323,1
1324,0
1325,0
1326,1
1327,1
1328,0
1329,0
1330,0
1331,1
1332,0
1333,1
1334,1
1335,0
1336,1
1337,1
1338,0
1339,1
1340,1
1341,1
1342,1
1343,1
1344,1
1345,1
1346,1
1347,1
1348,1
1349,0
1350,1
1351,0
1352,1
1353,1
1354,1
1355,1
1356,0
1357,1
1358,1
1359,1
1360,1
1361,1
1362,1
1363,1
1364,0
1365,0
1366,1
1367,0
1368,1
1369,1
1370,0
1371,0
1372,1
1373,1
1374,1
1375,1
1376,0
1377,1
1378,1
1379,1
1380,1
1381,1
1382,0
1383,0
1384,1
1385,0
1386,1
1387,1
1388,1
1389,1
1390,1
1391,1
1392,1
1393,1
1394,1
1395,0
1396,0
1397,1
1398,1
1399,0
1400,1
1401,1
1402,0
1403,1
1404,0
1405,1
1406,1
1407,0
1408,1
1409,1
1410,1
1411,1
1412,0
1413,1
1414,1
1415,1
1416,1
1417,1
1418,1
1419,0
1420,1
1421,0
1422,1
1423,0
1424,1
1425,1
1426,0
1427,1
1428,0
1429,1
1430,0
1431,1
1432,1
1433,1
1434,1
1435,1
1436,1
1437,1
1438,1
1439,1
1440,1
1441,1
1442,1
1443,1
1444,1
1445,1
1446,1
1447,1
1448,1
1449,0
1450,0
1451,1
1452,1
1453,1
1454,1
1455,1
1456,1
1457,1
1458,1
1459,1
1460,1
1461,1
1462,0
1463,1
1464,1
1465,1
1466,0
1467,1
1468,1
1469,1
1470,1
1471,0
1472,1
1473,1
1474,0
1475,1
1476,1
1477,1
1478,1
1479,1
1480,0
1481,1
1482,1
1483,1
1484,1
1485,0
1486,1
1487,0
1488,1
1489,1
1490,1
1491,1
1492,1
1493,1
1494,1
1495,0
1496,0
1497,1
1498,1
1499,1
1500,1
1501,0
1502,1
1503,0
1504,1
1505,1
1506,1
1507,1
1508,1
1509,1
1510,1
1511,0
1512,1
1513,1
1514,0
1515,0
1516,1
1517,1
1518,0
1519,1
1520,1
1521,1
1522,0
1523,0
1524,0
1525,1
1526,1
1527,1
1528,1
1529,1
1530,1
1531,1
1532,1
1533,1
1534,1
1535,0
1536,0
1537,1
1538,1
1539,1
1540,1
1541,0
1542,0
1543,1
1544,1
1545,1
1546,1
1547,0
1548,1
1549,1
1550,1
1551,1
1552,0
1553,1
1554,1
1555,1
1556,1
1557,0
1558,1
1559,1
1560,0
1561,1
1562,1
1563,1
1564,1
1565,0
1566,0
1567,1
1568,1
1569,1
1570,1
1571,1
1572,1
1573,0
1574,1
1575,1
1576,0
1577,1
1578,1
1579,1
1580,1
1581,1
1582,1
1583,1
1584,1
1585,0
1586,1
1587,0
1588,1
1589,1
1590,0
1591,1
1592,1
1593,0
1594,1
1595,0
1596,1
1597,0
1598,1
1599,1
1600,1
1601,0
1602,0
1603,0
1604,1
1605,1
1606,0
1607,1
1608,0
1609,1
1610,1
1611,0
1612,0
1613,1
1614,1
1615,1
1616,0
1617,1
1618,1
1619,1
1620,1
1621,0
1622,1
1623,1
1624,1
1625,0
1626,1
1627,1
1628,1
1629,1
1630,1
1631,1
1632,1
1633,1
1634,1
1635,1
1636,1
1637,0
1638,1
1639,1
1640,0
1641,1
1642,0
1643,0
1644,0
1645,0
1646,1
1647,1
1648,0
1649,0
1650,0
1651,0
1652,1
1653,0
1654,1
1655,1
1656,0
1657,1
1658,0
1659,1
1660,1
1661,1
1662,0
1663,1
1664,0
1665,1
1666,0
1667,1
1668,0
1669,1
1670,0
1671,0
1672,1
1673,1
1674,1
1675,1
1676,1
1677,1
1678,0
1679,1
1680,1
1681,1
1682,1
1683,1
1684,1
1685,1
1686,0
1687,1
1688,1
1689,1
1690,1
1691,1
1692,1
1693,1
1694,0
1695,1
1696,1
1697,0
1698,1
1699,1
1700,0
1701,1
1702,1
1703,1
1704,0
1705,1
1706,0
1707,0
1708,0
1709,0
1710,1
1711,0
1712,1
1713,1
1714,0
1715,1
1716,0
1717,1
1718,0
1719,1
1720,1
1721,1
1722,1
1723,1
1724,1
1725,1
1726,1
1727,1
1728,1
1729,1
1730,1
1731,1
1732,0
1733,0
1734,1
1735,1
1736,1
1737,0
1738,1
1739,1
1740,1
1741,1
1742,0
1743,0
1744,1
1745,1
1746,0
1747,1
1748,1
1749,0
1750,1
1751,1
1752,1
1753,1
1754,0
1755,0
1756,0
1757,0
1758,1
1759,1
1760,1
1761,1
1762,0
1763,1
1764,1
1765,1
1766,1
1767,1
1768,0
1769,1
1770,1
1771,1
1772,1
1773,1
1774,1
1775,0
1776,0
1777,1
1778,1
1779,0
1780,1
1781,1
1782,1
1783,0
1784,1
1785,1
1786,1
1787,1
1788,1
1789,1
1790,1
1791,1
1792,1
1793,0
1794,1
1795,1
1796,1
1797,1
1798,0
1799,0
1800,1
1801,1
1802,0
1803,1
1804,1
1805,0
1806,1
1807,0
1808,1
1809,1
1810,1
1811,0
1812,0
1813,1
1814,1
1815,1
1816,1
1817,1
1818,1
1819,1
1820,1
1821,1
1822,1
1823,1
1824,0
1825,1
1826,0
1827,1
1828,1
1829,1
1830,1
1831,1
1832,0
1833,1
1834,0
1835,1
1836,1
1837,0
1838,0
1839,1
1840,1
1841,1
1842,1
1843,0
1844,1
1845,1
1846,1
1847,1
1848,1
1849,1
1850,1
1851,1
1852,0
1853,1
1854,1
1855,1
1856,1
1857,1
1858,1
1859,1
1860,1
1861,0
1862,0
1863,1
1864,0
1865,0
1866,1
1867,1
1868,1
1869,1
1870,1
1871,1
1872,0
1873,1
1874,1
1875,1
1876,0
1877,1
1878,1
1879,0
1880,1
1881,0
1882,0
1883,0
1884,0
1885,1
1886,1
1887,1
1888,1
1889,0
1890,1
1891,0
1892,1
1893,1
1894,1
1895,1
1896,0
1897,1
1898,1
1899,1
1900,1
1901,1
1902,1
1903,0
1904,1
1905,0
1906,1
1907,0
1908,1
1909,1
1910,1
1911,1
1912,0
1913,1
1914,1
1915,1
1916,1
1917,1
1918,1
1919,1
1920,1
1921,1
1922,1
1923,1
1924,1
1925,1
1926,1
1927,0
1928,1
1929,1
1930,0
1931,0
1932,0
1933,1
1934,0
1935,0
1936,0
1937,1
1938,1
1939,0
1940,1
1941,1
1942,1
1943,1
1944,1
1945,1
1946,0
1947,1
1948,1
1949,1
1950,1
1951,1
1952,1
1953,1
1954,0
1955,0
1956,1
1957,0
1958,1
1959,1
1960,1
1961,0
1962,0
1963,1
1964,1
1965,1
1966,0
1967,1
1968,1
1969,0
1970,1
1971,0
1972,1
1973,1
1974,1
1975,0
1976,0
1977,1
1978,1
1979,1
1980,1
1981,1
1982,1
1983,1
1984,1
1985,1
1986,1
1987,1
1988,0
1989,1
1990,1
1991,0
1992,0
1993,1
1994,1
1995,0
1996,1
1997,0
1998,1
1999,1
2000,1
2001,1
2002,0
2003,1
2004,0
2005,1
2006,1
2007,1
2008,0
2009,1
2010,1
2011,1
2012,1
2013,0
2014,1
2015,0
2016,1
2017,1
2018,1
2019,1
2020,1
2021,1
2022,1
2023,0
2024,1
2025,1
2026,1
2027,1
2028,1
2029,1
2030,1
2031,1
2032,1
2033,1
2034,1
2035,0
2036,0
2037,1
2038,1
2039,1
2040,0
2041,1
2042,1
2043,1
2044,1
2045,1
2046,0
2047,1
2048,1
2049,1
2050,0
2051,1
2052,0
2053,1
2054,1
2055,0
2056,1
2057,1
2058,1
2059,1
2060,1
2061,1
2062,1
2063,1
2064,1
2065,1
2066,1
2067,1
2068,1
2069,1
2070,1
2071,0
2072,1
2073,0
2074,1
2075,1
2076,1
2077,1
2078,1
2079,1
2080,0
2081,0
2082,1
2083,1
2084,0
2085,1
2086,1
2087,0
2088,1
2089,1
2090,1
2091,0
2092,1
2093,1
2094,1
2095,1
2096,1
2097,1
2098,0
2099,1
2100,0
2101,1
2102,0
2103,1
2104,1
2105,1
2106,1
2107,1
2108,0
2109,1
2110,1
2111,0
2112,1
2113,1
2114,0
2115,1
2116,0
2117,0
2118,1
2119,1
2120,1
2121,1
2122,1
2123,1
2124,0
2125,0
2126,1
2127,1
2128,1
2129,0
2130,0
2131,0
2132,0
2133,1
2134,0
2135,1
2136,1
2137,1
2138,0
2139,1
2140,1
2141,1
2142,1
2143,1
2144,1
2145,0
2146,1
2147,1
2148,1
2149,1
2150,1
2151,1
2152,1
2153,1
2154,1
2155,1
2156,0
2157,0
2158,1
2159,0
2160,1
2161,0
2162,1
2163,1
2164,1
2165,1
2166,1
2167,0
2168,1
2169,1
2170,0
2171,0
2172,1
2173,1
2174,1
2175,1
2176,1
2177,1
2178,1
2179,1
2180,1
2181,0
2182,0
2183,0
2184,1
2185,0
2186,1
2187,1
2188,0
2189,1
2190,0
2191,1
2192,1
2193,1
2194,1
2195,1
2196,1
2197,0
2198,1
2199,1
2200,1
2201,0
2202,0
2203,1
2204,0
2205,1
2206,1
2207,1
2208,1
2209,0
2210,0
2211,1
2212,1
2213,0
2214,1
2215,1
2216,1
2217,0
2218,1
2219,0
2220,1
2221,1
2222,1
2223,1
2224,1
2225,0
2226,1
2227,0
2228,1
2229,1
2230,1
2231,1
2232,1
2233,1
2234,0
2235,1
2236,1
2237,1
2238,1
2239,1
2240,1
2241,1
2242,0
2243,0
2244,0
2245,0
2246,1
2247,1
2248,1
2249,1
2250,1
2251,1
2252,1
2253,1
2254,1
2255,0
2256,1
2257,1
2258,1
2259,1
2260,1
2261,0
2262,0
2263,1
2264,1
2265,0
2266,1
2267,1
2268,1
2269,1
2270,1
2271,1
2272,1
2273,0
2274,1
2275,1
2276,1
2277,1
2278,1
2279,1
2280,1
2281,1
2282,1
2283,1
2284,0
2285,0
2286,1
2287,1
2288,1
2289,0
2290,1
2291,1
2292,1
2293,1
2294,1
2295,0
2296,1
2297,1
2298,0
2299,0
2300,0
2301,1
2302,1
2303,0
2304,1
2305,1
2306,0
2307,1
2308,1
2309,1
2310,1
2311,1
2312,1
2313,0
2314,0
2315,1
2316,1
2317,0
2318,1
2319,1
2320,1
2321,1
2322,1
2323,1
2324,1
2325,0
2326,1
2327,1
2328,1
2329,0
2330,0
2331,1
2332,1
2333,0
2334,1
2335,1
2336,1
2337,0
2338,0
2339,0
2340,1
2341,1
2342,1
2343,1
2344,1
2345,1
2346,0
2347,0
2348,1
2349,1
2350,1
2351,0
2352,0
2353,1
2354,1
2355,1
2356,1
2357,1
2358,1
2359,1
2360,1
2361,1
2362,1
2363,1
2364,1
2365,1
2366,1
2367,1
2368,1
2369,1
2370,1
2371,0
2372,1
2373,1
2374,0
2375,0
2376,1
2377,1
2378,1
2379,1
2380,1
2381,1
2382,1
2383,1
2384,1
2385,1
2386,1
2387,1
2388,0
2389,1
2390,1
2391,1
2392,1
2393,1
2394,1
2395,0
2396,1
2397,1
2398,1
2399,0
2400,0
2401,0
2402,1
2403,1
2404,1
2405,1
2406,0
2407,1
2408,0
2409,1
2410,1
2411,1
2412,0
2413,1
2414,1
2415,1
2416,1
2417,0
2418,1
2419,0
2420,1
2421,0
2422,1
2423,1
2424,0
2425,1
2426,1
2427,1
2428,1
2429,1
2430,1
2431,1
2432,1
2433,0
2434,1
2435,1
2436,1
2437,1
2438,1
2439,1
2440,0
2441,1
2442,0
2443,1
2444,1
2445,0
2446,1
2447,1
2448,1
2449,1
2450,1
2451,1
2452,1
2453,1
2454,0
2455,1
2456,0
2457,1
2458,0
2459,1
2460,1
2461,1
2462,1
2463,1
2464,1
2465,1
2466,1
2467,1
2468,1
2469,1
2470,1
2471,1
2472,1
2473,0
2474,1
2475,0
2476,1
2477,0
2478,1
2479,0
2480,1
2481,1
2482,1
2483,1
2484,0
2485,1
2486,0
2487,0
2488,1
2489,0
2490,1
2491,0
2492,1
2493,1
2494,1
2495,0
2496,1
2497,1
2498,1
2499,1
2500,1
2501,1
2502,0
2503,1
2504,1
2505,1
2506,0
2507,0
2508,1
2509,1
2510,0
2511,1
2512,1
2513,1
2514,1
2515,1
2516,0
2517,0
2518,1
2519,1
2520,0
2521,0
2522,1
2523,1
2524,1
2525,1
2526,0
2527,1
2528,0
2529,1
2530,0
2531,1
2532,0
2533,1
2534,1
2535,1
2536,0
2537,1
2538,1
2539,1
2540,1
2541,1
2542,0
2543,1
2544,1
2545,1
2546,1
2547,1
2548,1
2549,1
2550,1
2551,0
2552,1
2553,0
2554,0
2555,1
2556,1
2557,0
2558,1
2559,1
2560,0
2561,1
2562,1
2563,1
2564,0
2565,0
2566,1
2567,1
2568,1
2569,1
2570,0
2571,1
2572,1
2573,0
2574,1
2575,1
2576,1
2577,1
2578,0
2579,0
2580,0
2581,1
2582,0
2583,0
2584,1
2585,0
2586,1
2587,1
2588,1
2589,1
2590,0
2591,1
2592,1
2593,1
2594,1
2595,1
2596,1
2597,0
2598,1
2599,1
2600,1
2601,0
2602,1
2603,1
2604,0
2605,1
2606,1
2607,1
2608,1
2609,1
2610,0
2611,0
2612,0
2613,1
2614,1
2615,1
2616,1
2617,1
2618,1
2619,1
2620,1
2621,1
2622,1
2623,1
2624,1
2625,1
2626,1
2627,1
2628,1
2629,1
2630,1
2631,0
2632,1
2633,0
2634,1
2635,1
2636,1
2637,0
2638,0
2639,0
2640,1
2641,1
2642,1
2643,1
2644,1
2645,0
2646,0
2647,1
2648,1
2649,1
2650,1
2651,1
2652,1
2653,1
2654,1
2655,0
2656,1
2657,1
2658,1
2659,1
2660,1
2661,1
2662,1
2663,1
2664,1
2665,1
2666,0
2667,1
2668,1
2669,0
2670,1
2671,1
2672,1
2673,1
2674,0
2675,1
2676,1
2677,1
2678,1
2679,1
2680,1
2681,1
2682,1
2683,1
2684,1
2685,1
2686,1
2687,1
2688,1
2689,1
2690,1
2691,1
2692,1
2693,1
2694,0
2695,1
2696,0
2697,0
2698,0
2699,0
2700,1
2701,1
2702,1
2703,1
2704,1
2705,1
2706,1
2707,1
2708,0
2709,1
2710,1
2711,1
2712,1
2713,1
2714,0
2715,1
2716,1
2717,1
2718,1
2719,1
2720,1
2721,1
2722,0
2723,1
2724,1
2725,1
2726,1
2727,1
2728,1
2729,0
2730,1
2731,1
2732,1
2733,1
2734,1
2735,1
2736,0
2737,0
2738,1
2739,0
2740,1
2741,1
2742,1
2743,0
2744,0
2745,1
2746,1
2747,1
2748,1
2749,0
2750,0
2751,1
2752,1
2753,0
2754,1
2755,1
2756,1
2757,1
2758,1
2759,1
2760,1
2761,0
2762,1
2763,0
2764,0
2765,0
2766,0
2767,1
2768,1
2769,1
2770,0
2771,1
2772,1
2773,1
2774,1
2775,1
2776,1
2777,1
2778,0
2779,0
2780,0
2781,1
2782,1
2783,1
2784,1
2785,1
2786,1
2787,1
2788,1
2789,0
2790,1
2791,0
2792,1
2793,1
2794,0
2795,1
2796,0
2797,1
2798,1
2799,0
2800,0
2801,1
2802,1
2803,1
2804,1
2805,0
2806,0
2807,1
2808,1
2809,1
2810,1
2811,0
2812,1
2813,1
2814,1
2815,1
2816,1
2817,1
2818,1
2819,0
2820,1
2821,1
2822,1
2823,1
2824,0
2825,0
2826,1
2827,0
2828,1
2829,1
2830,1
2831,1
2832,1
2833,1
2834,1
2835,0
2836,1
2837,0
2838,1
2839,0
2840,1
2841,1
2842,1
2843,0
2844,1
2845,1
2846,1
2847,0
2848,1
2849,1
2850,1
2851,1
2852,0
2853,1
2854,1
2855,1
2856,1
2857,1
2858,1
2859,0
2860,1
2861,0
2862,1
2863,1
2864,1
2865,0
2866,0
2867,1
2868,1
2869,0
2870,0
2871,1
2872,0
2873,1
2874,1
2875,1
2876,1
2877,0
2878,0
2879,1
2880,1
2881,0
2882,0
2883,0
2884,1
2885,0
2886,1
2887,0
2888,1
2889,1
2890,1
2891,1
2892,0
2893,1
2894,1
2895,1
2896,1
2897,1
2898,1
2899,0
2900,0
2901,1
2902,1
2903,0
2904,1
2905,1
2906,1
2907,1
2908,1
2909,0
2910,0
2911,0
2912,1
2913,1
2914,1
2915,1
2916,1
2917,1
2918,1
2919,1
2920,1
2921,1
2922,1
2923,0
2924,1
2925,1
2926,1
2927,1
2928,1
2929,1
2930,1
2931,1
2932,1
2933,0
2934,1
2935,0
2936,1
2937,1
2938,0
2939,1
2940,1
2941,0
2942,1
2943,1
2944,0
2945,1
2946,0
2947,0
2948,1
2949,1
2950,1
2951,0
2952,1
2953,1
2954,1
2955,1
2956,1
2957,1
2958,1
2959,1
2960,1
2961,1
2962,1
2963,1
2964,0
2965,1
2966,0
2967,1
2968,1
2969,0
2970,1
2971,0
2972,1
2973,1
2974,0
2975,1
2976,1
2977,1
2978,1
2979,1
2980,1
2981,1
2982,1
2983,1
2984,1
2985,1
2986,1
2987,1
2988,1
2989,1
2990,1
2991,1
2992,1
2993,1
2994,1
2995,1
2996,0
2997,1
2998,1
2999,1
3000,1
3001,1
3002,1
3003,1
3004,1
3005,0
3006,1
3007,1
3008,1
3009,0
3010,1
3011,0
3012,0
3013,1
3014,1
3015,1
3016,1
3017,1
3018,0
3019,1
3020,1
3021,1
3022,1
3023,0
3024,1
3025,1
3026,1
3027,0
3028,1
3029,1
3030,0
3031,1
3032,1
3033,1
3034,1
3035,1
3036,1
3037,1
3038,1
3039,0
3040,1
3041,0
3042,1
3043,1
3044,0
3045,1
3046,1
3047,1
3048,1
3049,1
3050,0
3051,1
3052,1
3053,0
3054,1
3055,1
3056,1
3057,1
3058,1
3059,1
3060,1
3061,1
3062,1
3063,1
3064,1
3065,1
3066,1
3067,0
3068,1
3069,0
3070,0
3071,1
3072,0
3073,1
3074,1
3075,1
3076,0
3077,1
3078,1
3079,1
3080,1
3081,1
3082,1
3083,1
3084,1
3085,1
3086,1
3087,1
3088,1
3089,0
3090,0
3091,1
3092,1
3093,0
3094,1
3095,0
3096,1
3097,1
3098,0
3099,1
3100,0
3101,0
3102,1
3103,0
3104,0
3105,1
3106,1
3107,1
3108,1
3109,1
3110,1
3111,1
3112,0
3113,1
3114,0
3115,1
3116,0
3117,1
3118,1
3119,1
3120,0
3121,0
3122,1
3123,0
3124,1
3125,1
3126,0
3127,0
3128,1
3129,1
3130,1
3131,0
3132,1
3133,1
3134,1
3135,1
3136,1
3137,0
3138,1
3139,0
3140,1
3141,1
3142,1
3143,1
3144,1
3145,1
3146,0
3147,1
3148,1
3149,1
3150,1
3151,1
3152,1
3153,0
3154,1
3155,0
3156,1
3157,0
3158,0
3159,1
3160,0
3161,0
3162,1
3163,1
3164,1
3165,0
3166,1
3167,0
3168,1
3169,1
3170,1
3171,1
3172,1
3173,1
3174,1
3175,1
3176,1
3177,0
3178,1
3179,0
3180,1
3181,1
3182,1
3183,1
3184,1
3185,1
3186,1
3187,1
3188,0
3189,1
3190,0
3191,1
3192,0
3193,0
3194,1
3195,1
3196,1
3197,0
3198,1
3199,0
3200,1
3201,0
3202,1
3203,1
3204,1
3205,0
3206,1
3207,0
3208,1
3209,1
3210,1
3211,1
3212,1
3213,0
3214,1
3215,1
3216,0
3217,1
3218,1
3219,0
3220,1
3221,1
3222,0
3223,1
3224,0
3225,1
3226,1
3227,0
3228,1
3229,0
3230,0
3231,0
3232,1
3233,0
3234,1
3235,1
3236,1
3237,0
3238,1
3239,1
3240,1
3241,1
3242,1
3243,0
3244,0
3245,1
3246,1
3247,1
3248,1
3249,1
3250,1
3251,0
3252,1
3253,1
3254,1
3255,1
3256,1
3257,0
3258,1
3259,1
3260,1
3261,0
3262,0
3263,0
3264,1
3265,1
3266,1
3267,0
3268,0
3269,1
3270,1
3271,1
3272,1
3273,0
3274,1
3275,1
3276,1
3277,0
3278,1
3279,1
3280,1
3281,0
3282,1
3283,1
3284,0
3285,1
3286,1
3287,0
3288,1
3289,1
3290,0
3291,1
3292,0
3293,1
3294,1
3295,1
3296,1
3297,1
3298,1
3299,0
3300,1
3301,1
3302,0
3303,1
3304,0
3305,1
3306,0
3307,1
3308,1
3309,1
3310,1
3311,1
3312,1
3313,1
3314,0
3315,1
3316,1
3317,0
3318,1
3319,1
3320,0
3321,1
3322,1
3323,0
3324,1
3325,1
3326,1
3327,1
3328,1
3329,0
3330,1
3331,1
3332,0
3333,1
3334,1
3335,1
3336,0
3337,0
3338,1
3339,1
3340,1
3341,1
3342,1
3343,1
3344,1
3345,1
3346,1
3347,1
3348,0
3349,1
3350,1
3351,0
3352,1
3353,1
3354,1
3355,1
3356,1
3357,1
3358,1
3359,0
3360,1
3361,1
3362,0
3363,1
3364,0
3365,0
3366,0
3367,1
3368,1
3369,0
3370,1
3371,1
3372,1
3373,1
3374,1
3375,1
3376,1
3377,1
3378,1
3379,1
3380,1
3381,1
3382,1
3383,1
3384,1
3385,1
3386,0
3387,1
3388,1
3389,1
3390,1
3391,1
3392,1
3393,1
3394,1
3395,0
3396,0
3397,1
3398,1
3399,1
3400,0
3401,0
3402,1
3403,1
3404,0
3405,1
3406,0
3407,0
3408,1
3409,1
3410,1
3411,1
3412,1
3413,1
3414,0
3415,1
3416,1
3417,1
3418,0
3419,1
3420,0
3421,1
3422,1
3423,1
3424,1
3425,1
3426,1
3427,1
3428,1
3429,1
3430,1
3431,0
3432,1
3433,0
3434,0
3435,1
3436,1
3437,1
3438,1
3439,1
3440,1
3441,1
3442,1
3443,1
3444,1
3445,1
3446,0
3447,1
3448,1
3449,1
3450,1
3451,0
3452,1
3453,1
3454,1
3455,1
3456,0
3457,1
3458,1
3459,1
3460,1
3461,1
3462,1
3463,1
3464,1
3465,0
3466,1
3467,1
3468,1
3469,1
3470,1
3471,0
3472,1
3473,1
3474,1
3475,1
3476,0
3477,1
3478,1
3479,1
3480,1
3481,1
3482,1
3483,1
3484,1
3485,0
3486,1
3487,1
3488,1
3489,1
3490,1
3491,1
3492,1
3493,0
3494,1
3495,1
3496,1
3497,0
3498,0
3499,0
3500,1
3501,0
3502,1
3503,0
3504,1
3505,1
3506,1
3507,0
3508,0
3509,0
3510,0
3511,0
3512,1
3513,1
3514,1
3515,1
3516,1
3517,1
3518,0
3519,1
3520,1
3521,1
3522,1
3523,0
3524,1
3525,1
3526,1
3527,1
3528,1
3529,0
3530,0
3531,0
3532,1
3533,1
3534,0
3535,1
3536,1
3537,1
3538,1
3539,1
3540,1
3541,0
3542,1
3543,1
3544,0
3545,1
3546,1
3547,1
3548,1
3549,1
3550,1
3551,1
3552,1
3553,1
3554,1
3555,1
3556,1
3557,1
3558,1
3559,1
3560,0
3561,0
3562,0
3563,0
3564,0
3565,0
3566,0
3567,1
3568,1
3569,0
3570,1
3571,1
3572,0
3573,1
3574,1
3575,0
3576,1
3577,0
3578,1
3579,1
3580,1
3581,1
3582,0
3583,0
3584,1
3585,1
3586,1
3587,1
3588,0
3589,1
3590,1
3591,1
3592,0
3593,0
3594,1
3595,1
3596,0
3597,1
3598,0
3599,1
3600,1
3601,1
3602,1
3603,1
3604,1
3605,1
3606,1
3607,1
3608,1
3609,0
3610,1
3611,0
3612,1
3613,1
3614,0
3615,1
3616,1
3617,1
3618,1
3619,0
3620,0
3621,1
3622,0
3623,1
3624,1
3625,0
3626,1
3627,0
3628,1
3629,1
3630,1
3631,1
3632,1
3633,1
3634,0
3635,0
3636,1
3637,1
3638,1
3639,1
3640,0
3641,1
3642,1
3643,1
3644,1
3645,1
3646,1
3647,1
3648,1
3649,1
3650,1
3651,0
3652,1
3653,1
3654,1
3655,1
3656,1
3657,1
3658,1
3659,1
3660,1
3661,0
3662,1
3663,1
3664,1
3665,1
3666,1
3667,1
3668,0
3669,1
3670,1
3671,1
3672,1
3673,1
3674,1
3675,1
3676,0
3677,1
3678,1
3679,1
3680,0
3681,1
3682,1
3683,1
3684,1
3685,1
3686,1
3687,1
3688,1
3689,0
3690,1
3691,1
3692,1
3693,1
3694,0
3695,1
3696,1
3697,0
3698,1
3699,1
3700,1
3701,1
3702,0
3703,1
3704,1
3705,0
3706,0
3707,1
3708,1
3709,1
3710,1
3711,0
3712,1
3713,1
3714,1
3715,1
3716,1
3717,1
3718,0
3719,0
3720,1
3721,0
3722,1
3723,1
3724,0
3725,1
3726,1
3727,1
3728,1
3729,0
3730,1
3731,1
3732,1
3733,1
3734,1
3735,1
3736,1
3737,1
3738,0
3739,0
3740,0
3741,1
3742,1
3743,1
3744,1
3745,1
3746,1
3747,1
3748,1
3749,0
3750,1
3751,0
3752,1
3753,0
3754,1
3755,1
3756,1
3757,1
3758,1
3759,1
3760,1
3761,1
3762,0
3763,1
3764,1
3765,1
3766,0
3767,1
3768,1
3769,0
3770,0
3771,0
3772,1
3773,1
3774,1
3775,0
3776,1
3777,1
3778,1
3779,0
3780,0
3781,1
3782,1
3783,1
3784,1
3785,1
3786,1
3787,1
3788,1
3789,0
3790,0
3791,1
3792,1
3793,1
3794,1
3795,1
3796,1
3797,1
3798,1
3799,1
3800,1
3801,1
3802,1
3803,1
3804,0
3805,1
3806,1
3807,0
3808,1
3809,1
3810,1
3811,1
3812,1
3813,1
3814,0
3815,0
3816,1
3817,0
3818,1
3819,1
3820,1
3821,1
3822,1
3823,1
3824,1
3825,1
3826,1
3827,1
3828,0
3829,1
3830,0
3831,1
3832,1
3833,1
3834,1
3835,0
3836,0
3837,1
3838,1
3839,1
3840,1
3841,1
3842,1
3843,1
3844,1
3845,0
3846,1
3847,1
3848,1
3849,0
3850,1
3851,1
3852,1
3853,1
3854,0
3855,1
3856,1
3857,0
3858,0
3859,0
3860,1
3861,1
3862,1
3863,0
3864,1
3865,1
3866,0
3867,1
3868,1
3869,1
3870,1
3871,1
3872,0
3873,1
3874,1
3875,1
3876,1
3877,0
3878,0
3879,1
3880,1
3881,0
3882,1
3883,0
3884,1
3885,1
3886,0
3887,0
3888,1
3889,1
3890,1
3891,1
3892,0
3893,1
3894,0
3895,0
3896,1
3897,1
3898,1
3899,1
3900,1
3901,1
3902,0
3903,1
3904,1
3905,1
3906,1
3907,0
3908,1
3909,1
3910,0
3911,1
3912,1
3913,1
3914,1
3915,1
3916,1
3917,1
3918,1
3919,1
3920,1
3921,0
3922,1
3923,1
3924,0
3925,0
3926,1
3927,1
3928,1
3929,1
3930,1
3931,1
3932,1
3933,1
3934,1
3935,1
3936,1
3937,1
3938,0
3939,0
3940,0
3941,1
3942,1
3943,1
3944,1
3945,0
3946,1
3947,1
3948,1
3949,0
3950,1
3951,0
3952,1
3953,1
3954,1
3955,1
3956,1
3957,0
3958,1
3959,1
3960,1
3961,1
3962,1
3963,1
3964,1
3965,0
3966,1
3967,1
3968,1
3969,1
3970,0
3971,1
3972,0
3973,1
3974,1
3975,1
3976,1
3977,1
3978,1
3979,0
3980,0
3981,0
3982,1
3983,0
3984,1
3985,1
3986,0
3987,0
3988,1
3989,1
3990,1
3991,0
3992,1
3993,0
3994,1
3995,1
3996,1
3997,0
3998,1
3999,1
4000,1
4001,1
4002,1
4003,0
4004,1
4005,1
4006,1
4007,1
4008,0
4009,1
4010,0
4011,1
4012,1
4013,1
4014,1
4015,1
4016,1
4017,1
4018,1
4019,0
4020,1
4021,1
4022,1
4023,1
4024,1
4025,1
4026,0
4027,1
4028,1
4029,1
4030,1
4031,1
4032,1
4033,1
4034,0
4035,0
4036,1
4037,1
4038,1
4039,1
4040,0
4041,1
4042,1
4043,0
4044,1
4045,1
4046,1
4047,0
4048,1
4049,0
4050,1
4051,1
4052,0
4053,1
4054,1
4055,0
4056,1
4057,1
4058,1
4059,1
4060,1
4061,0
4062,1
4063,1
4064,1
4065,0
4066,1
4067,1
4068,1
4069,1
4070,1
4071,0
4072,1
4073,1
4074,1
4075,0
4076,1
4077,0
4078,1
4079,1
4080,0
4081,1
4082,0
4083,1
4084,0
4085,1
4086,1
4087,1
4088,1
4089,0
4090,1
4091,0
4092,0
4093,1
4094,0
4095,1
4096,1
4097,1
4098,0
4099,1
4100,1
4101,1
4102,1
4103,1
4104,1
4105,0
4106,1
4107,0
4108,0
4109,1
4110,0
4111,1
4112,0
4113,1
4114,0
4115,0
4116,1
4117,1
4118,1
4119,1
4120,0
4121,1
4122,1
4123,0
4124,1
4125,1
4126,1
4127,0
4128,1
4129,1
4130,1
4131,0
4132,1
4133,1
4134,1
4135,1
4136,1
4137,0
4138,1
4139,1
4140,0
4141,0
4142,1
4143,1
4144,1
4145,1
4146,0
4147,1
4148,1
4149,0
4150,1
4151,0
4152,1
4153,1
4154,1
4155,1
4156,0
4157,1
4158,0
4159,1
4160,1
4161,0
4162,1
4163,1
4164,1
4165,1
4166,0
4167,0
4168,1
4169,1
4170,1
4171,1
4172,1
4173,1
4174,1
4175,1
4176,1
4177,1
4178,1
4179,1
4180,1
4181,0
4182,1
4183,1
4184,1
4185,1
4186,1
4187,1
4188,1
4189,1
4190,1
4191,1
4192,1
4193,1
4194,1
4195,1
4196,1
4197,1
4198,1
4199,1
4200,0
4201,1
4202,0
4203,1
4204,1
4205,1
4206,0
4207,1
4208,0
4209,1
4210,1
4211,0
4212,1
4213,0
4214,0
4215,1
4216,1
4217,1
4218,0
4219,1
4220,1
4221,1
4222,1
4223,1
4224,1
4225,0
4226,1
4227,1
4228,1
4229,1
4230,1
4231,1
4232,1
4233,0
4234,1
4235,0
4236,1
4237,0
4238,0
4239,1
4240,1
4241,1
4242,1
4243,1
4244,1
4245,0
4246,1
4247,0
4248,1
4249,1
4250,1
4251,0
4252,1
4253,1
4254,1
4255,1
4256,1
4257,1
4258,0
4259,0
4260,1
4261,1
4262,1
4263,1
4264,1
4265,0
4266,1
4267,0
4268,0
4269,1
4270,1
4271,1
4272,0
4273,1
4274,1
4275,1
4276,0
4277,0
4278,1
4279,0
4280,1
4281,1
4282,1
4283,1
4284,0
4285,1
4286,1
4287,0
4288,0
4289,1
4290,0
4291,1
4292,0
4293,1
4294,0
4295,1
4296,1
4297,0
4298,0
4299,1
4300,1
4301,0
4302,1
4303,1
4304,0
4305,1
4306,1
4307,1
4308,0
4309,1
4310,1
4311,1
4312,1
4313,0
4314,1
4315,1
4316,1
4317,0
4318,1
4319,1
4320,1
4321,1
4322,0
4323,1
4324,1
4325,1
4326,1
4327,1
4328,0
4329,0
4330,0
4331,1
4332,1
4333,1
4334,1
4335,1
4336,1
4337,0
4338,1
4339,1
4340,1
4341,1
4342,0
4343,1
4344,1
4345,1
4346,1
4347,0
4348,1
4349,1
4350,1
4351,1
4352,1
4353,1
4354,1
4355,1
4356,1
4357,1
4358,1
4359,0
4360,0
4361,0
4362,1
4363,0
4364,1
4365,1
4366,1
4367,0
4368,1
4369,1
4370,0
4371,0
4372,1
4373,1
4374,1
4375,1
4376,0
4377,1
4378,1
4379,1
4380,0
4381,1
4382,1
4383,0
4384,0
4385,1
4386,1
4387,1
4388,1
4389,0
4390,1
4391,1
4392,1
4393,1
4394,1
4395,1
4396,1
4397,1
4398,0
4399,0
4400,1
4401,1
4402,1
4403,0
4404,0
4405,1
4406,1
4407,0
4408,1
4409,1
4410,0
4411,1
4412,0
4413,1
4414,1
4415,1
4416,1
4417,1
4418,0
4419,0
4420,0
4421,0
4422,1
4423,1
4424,1
4425,1
4426,1
4427,1
4428,0
4429,0
4430,0
4431,1
4432,1
4433,1
4434,1
4435,1
4436,1
4437,1
4438,1
4439,1
4440,1
4441,1
4442,1
4443,0
4444,1
4445,1
4446,0
4447,1
4448,1
4449,1
4450,1
4451,1
4452,1
4453,1
4454,1
4455,1
4456,0
4457,0
4458,1
4459,0
4460,1
4461,1
4462,1
4463,0
4464,1
4465,1
4466,1
4467,1
4468,1
4469,0
4470,1
4471,1
4472,1
4473,1
4474,1
4475,0
4476,1
4477,1
4478,1
4479,0
4480,0
4481,1
4482,1
4483,0
4484,1
4485,1
4486,1
4487,1
4488,1
4489,1
4490,1
4491,1
4492,0
4493,1
4494,1
4495,1
4496,1
4497,1
4498,1
4499,1
4500,1
4501,1
4502,1
4503,1
4504,1
4505,0
4506,1
4507,0
4508,1
4509,1
4510,1
4511,1
4512,1
4513,1
4514,1
4515,0
4516,1
4517,0
4518,1
4519,1
4520,0
4521,1
4522,1
4523,0
4524,1
4525,1
4526,1
4527,1
4528,1
4529,1
4530,1
4531,1
4532,1
4533,1
4534,1
4535,1
4536,1
4537,1
4538,1
4539,1
4540,1
4541,1
4542,1
4543,1
4544,1
4545,1
4546,0
4547,1
4548,1
4549,1
4550,1
4551,1
4552,0
4553,1
4554,1
4555,0
4556,1
4557,1
4558,1
4559,1
4560,1
4561,1
4562,1
4563,0
4564,1
4565,1
4566,0
4567,1
4568,0
4569,1
4570,1
4571,0
4572,1
4573,1
4574,1
4575,1
4576,1
4577,1
4578,1
4579,1
4580,1
4581,1
4582,1
4583,1
4584,1
4585,1
4586,1
4587,1
4588,1
4589,0
4590,1
4591,1
4592,1
4593,1
4594,1
4595,1
4596,0
4597,1
4598,1
4599,0
4600,1
4601,1
4602,1
4603,1
4604,1
4605,0
4606,1
4607,1
4608,1
4609,1
4610,1
4611,1
4612,1
4613,0
4614,1
4615,0
4616,1
4617,1
4618,0
4619,1
4620,0
4621,1
4622,1
4623,0
4624,1
4625,1
4626,1
4627,1
4628,0
4629,1
4630,1
4631,1
4632,0
4633,1
4634,0
4635,1
4636,1
4637,1
4638,1
4639,1
4640,1
4641,1
4642,1
4643,1
4644,1
4645,0
4646,0
4647,0
4648,1
4649,1
4650,1
4651,1
4652,1
4653,1
4654,1
4655,1
4656,1
4657,1
4658,1
4659,1
4660,1
4661,1
4662,1
4663,1
4664,1
4665,1
4666,0
4667,1
4668,0
4669,1
4670,1
4671,0
4672,1
4673,1
4674,0
4675,1
4676,1
4677,1
4678,1
4679,1
4680,1
4681,1
4682,1
4683,1
4684,1
4685,1
4686,1
4687,0
4688,1
4689,1
4690,1
4691,1
4692,1
4693,1
4694,1
4695,1
4696,1
4697,1
4698,1
4699,1
4700,1
4701,1
4702,1
4703,1
4704,1
4705,1
4706,1
4707,1
4708,0
4709,1
4710,1
4711,1
4712,1
4713,1
4714,1
4715,0
4716,1
4717,1
4718,1
4719,1
4720,1
4721,1
4722,0
4723,0
4724,1
4725,1
4726,1
4727,0
4728,1
4729,1
4730,1
4731,1
4732,1
4733,1
4734,1
4735,1
4736,0
4737,1
4738,1
4739,1
4740,0
4741,1
4742,1
4743,1
4744,0
4745,1
4746,1
4747,1
4748,1
4749,0
4750,1
4751,0
4752,1
4753,1
4754,1
4755,1
4756,1
4757,1
4758,1
4759,1
4760,1
4761,1
4762,1
4763,1
4764,1
4765,0
4766,0
4767,1
4768,1
4769,0
4770,0
4771,0
4772,1
4773,1
4774,1
4775,1
4776,1
4777,1
4778,1
4779,1
4780,0
4781,1
4782,1
4783,1
4784,1
4785,1
4786,1
4787,1
4788,1
4789,1
4790,1
4791,1
4792,1
4793,0
4794,1
4795,1
4796,0
4797,0
4798,1
4799,1
4800,1
4801,0
4802,1
4803,1
4804,1
4805,1
4806,1
4807,0
4808,1
4809,1
4810,1
4811,1
4812,0
4813,0
4814,1
4815,0
4816,1
4817,1
4818,1
4819,0
4820,1
4821,1
4822,1
4823,1
4824,0
4825,1
4826,1
4827,0
4828,1
4829,0
4830,1
4831,1
4832,1
4833,1
4834,0
4835,1
4836,0
4837,1
4838,1
4839,1
4840,0
4841,0
4842,1
4843,1
4844,1
4845,0
4846,1
4847,0
4848,1
4849,1
4850,1
4851,1
4852,0
4853,0
4854,1
4855,1
4856,1
4857,0
4858,0
4859,1
4860,1
4861,1
4862,0
4863,0
4864,0
4865,1
4866,1
4867,0
4868,0
4869,1
4870,1
4871,1
4872,1
4873,1
4874,0
4875,1
4876,1
4877,0
4878,1
4879,1
4880,0
4881,0
4882,1
4883,1
4884,1
4885,1
4886,1
4887,1
4888,1
4889,1
4890,1
4891,1
4892,1
4893,1
4894,1
4895,1
4896,1
4897,1
4898,1
4899,0
4900,1
4901,1
4902,1
4903,1
4904,0
4905,1
4906,0
4907,0
4908,1
4909,1
4910,0
4911,0
4912,1
4913,1
4914,1
4915,1
4916,1
4917,1
4918,1
4919,1
4920,1
4921,1
4922,1
4923,1
4924,1
4925,1
4926,0
4927,1
4928,1
4929,0
4930,1
4931,1
4932,1
4933,1
4934,1
4935,0
4936,0
4937,0
4938,1
4939,1
4940,1
4941,1
4942,0
4943,1
4944,1
4945,1
4946,1
4947,1
4948,1
4949,0
4950,1
4951,1
4952,0
4953,1
4954,1
4955,1
4956,0
4957,1
4958,1
4959,1
4960,1
4961,1
4962,1
4963,1
4964,1
4965,1
4966,1
4967,0
4968,0
4969,1
4970,1
4971,0
4972,1
4973,0
4974,1
4975,1
4976,1
4977,1
4978,1
4979,0
4980,0
4981,0
4982,1
4983,1
4984,1
4985,1
4986,1
4987,1
4988,1
4989,1
4990,1
4991,1
4992,1
4993,1
4994,1
4995,1
4996,1
4997,1
4998,0
4999,0
5000,1
5001,1
5002,0
5003,0
5004,0
5005,1
5006,1
5007,0
5008,1
5009,0
5010,1
5011,0
5012,1
5013,1
5014,1
5015,1
5016,1
5017,0
5018,0
5019,0
5020,1
5021,1
5022,1
5023,1
5024,1
5025,1
5026,0
5027,1
5028,1
5029,1
5030,0
5031,1
5032,0
5033,1
5034,1
5035,0
5036,1
5037,1
5038,0
5039,0
5040,1
5041,1
5042,0
5043,1
5044,1
5045,1
5046,0
5047,1
5048,1
5049,1
5050,0
5051,1
5052,1
5053,1
5054,1
5055,1
5056,1
5057,0
5058,1
5059,1
5060,0
5061,1
5062,0
5063,1
5064,0
5065,1
5066,0
5067,1
5068,0
5069,1
5070,0
5071,1
5072,1
5073,1
5074,1
5075,1
5076,1
5077,1
5078,1
5079,1
5080,1
5081,0
5082,0
5083,1
5084,1
5085,0
5086,1
5087,1
5088,0
5089,1
5090,1
5091,0
5092,1
5093,0
5094,1
5095,1
5096,1
5097,1
5098,1
5099,0
5100,1
5101,1
5102,1
5103,1
5104,1
5105,0
5106,1
5107,0
5108,1
5109,1
5110,1
5111,0
5112,1
5113,0
5114,1
5115,0
5116,1
5117,0
5118,1
5119,0
5120,0
5121,1
5122,1
5123,0
5124,0
5125,1
5126,1
5127,1
5128,1
5129,1
5130,1
5131,1
5132,1
5133,1
5134,1
5135,1
5136,1
5137,1
5138,0
5139,1
5140,0
5141,1
5142,1
5143,0
5144,1
5145,1
5146,1
5147,0
5148,0
5149,1
5150,0
5151,1
5152,1
5153,0
5154,1
5155,0
5156,0
5157,1
5158,1
5159,1
5160,1
5161,1
5162,1
5163,1
5164,1
5165,1
5166,1
5167,0
5168,1
5169,1
5170,1
5171,0
5172,0
5173,1
5174,1
5175,1
5176,0
5177,1
5178,1
5179,0
5180,1
5181,1
5182,1
5183,1
5184,1
5185,1
5186,1
5187,0
5188,1
5189,1
5190,1
5191,1
5192,1
5193,0
5194,0
5195,0
5196,1
